\relax 
\@writefile{toc}{\contentsline {section}{\numberline {1}Abstract}{1}}
\@writefile{toc}{\contentsline {section}{\numberline {2}Introduction}{1}}
\@writefile{toc}{\contentsline {section}{\numberline {3}Observations}{1}}
\@writefile{lof}{\contentsline {figure}{\numberline {1}{\ignorespaces Spectrum of NGC7448}}{1}}
\@writefile{lof}{\contentsline {figure}{\numberline {2}{\ignorespaces Spectrum of M57 (The Ring Nebula)}}{2}}
\@writefile{lot}{\contentsline {table}{\numberline {1}{\ignorespaces Journal of Observations}}{2}}
\newlabel{journobs}{{1}{2}}
\@writefile{toc}{\contentsline {section}{\numberline {4}Analysis}{2}}
\@writefile{lot}{\contentsline {table}{\numberline {2}{\ignorespaces Positions of Spectral Lines}}{2}}
\newlabel{xlambda}{{2}{2}}
\@writefile{lot}{\contentsline {table}{\numberline {3}{\ignorespaces Y Center vs Wave Center}}{3}}
\newlabel{yvwave}{{3}{3}}
\@writefile{lof}{\contentsline {figure}{\numberline {3}{\ignorespaces Spectrum of NGC7448}}{4}}
\@writefile{lot}{\contentsline {table}{\numberline {4}{\ignorespaces $H_\alpha $ Wavelength vs Y Center}}{5}}
\newlabel{galaxy halpha}{{4}{5}}
\@writefile{lof}{\contentsline {figure}{\numberline {4}{\ignorespaces Plot of Uncorrected Wavelength vs Y Position}}{6}}
\@writefile{lof}{\contentsline {figure}{\numberline {5}{\ignorespaces Corrected Wavelength vs Y Position}}{7}}
\@writefile{lot}{\contentsline {table}{\numberline {5}{\ignorespaces Analysis of Data Points}}{9}}
\newlabel{analysis chart}{{5}{9}}
\@writefile{lof}{\contentsline {figure}{\numberline {6}{\ignorespaces Enclosed Mass vs Radius}}{10}}
\@writefile{toc}{\contentsline {section}{\numberline {5}Discussion}{10}}
\@writefile{toc}{\contentsline {section}{\numberline {6}Conclusion}{10}}
\@writefile{toc}{\contentsline {section}{\numberline {7}References}{11}}
